{
    "about": {
        "username": "mirfanrafif17",
        "project_name": "LAIBA_Flutter1",
        "time": "11/10/2021, 16:46:47"
    },
    "test": {
        "pipeline_id": "32132190",
        "success": false,
        "tests": [
            {
                "id": 3,
                "name": "Hello world text should available",
                "result": "success",
                "message": null
            },
            {
                "id": 4,
                "name": "Text should change",
                "result": "error",
                "message": {
                    "expected": "exactly one matching node in the widget tree",
                    "actual": "_TextFinder:<zero widgets with text \"Hello, irfan\" (ignoring offstage widgets)>",
                    "which": "means none were found but one was expected"
                }
            }
        ]
    }
}